# Blender MTL File: 'photodetector.blend'
# Material Count: 1

newmtl Material
Ns 96.078431
Ka 1.000000 1.000000 1.000000
Kd 0.640000 0.640000 0.640000
Ks 0.500000 0.500000 0.500000
Ke 0.000000 0.000000 0.000000
Ni 1.000000
d 1.000000
illum 2
map_Bump Normal.png
map_Ka Ambient.png
map_Kd Albedo.png
map_Ks Metallic.png
map_Ns Roughness.png
